[gd_scene load_steps=6 format=2]

[ext_resource path="res://objects/explosion/Explosion_2.png" type="Texture" id=1]
[ext_resource path="res://objects/explosion/explosion.gd" type="Script" id=2]
[ext_resource path="res://objects/explosion/sounds/boom3.wav" type="AudioStream" id=3]

[sub_resource type="CircleShape2D" id=1]
radius = 34.641

[sub_resource type="Animation" id=2]
resource_name = "death"
tracks/0/type = "bezier"
tracks/0/path = NodePath("sprite:frame")
tracks/0/interp = 1
tracks/0/loop_wrap = true
tracks/0/imported = false
tracks/0/enabled = true
tracks/0/keys = {
"points": PoolRealArray( 2, -0.25, 0, 0.25, 0, 15, -0.25, 0, 0.25, 0 ),
"times": PoolRealArray( 0, 1 )
}
tracks/1/type = "bezier"
tracks/1/path = NodePath("CollisionShape2D:scale:x")
tracks/1/interp = 1
tracks/1/loop_wrap = true
tracks/1/imported = false
tracks/1/enabled = true
tracks/1/keys = {
"points": PoolRealArray( 0.1, -0.25, 0, 0.25, 0, 1, -0.25, 0, 0.25, 0, 0.7, -0.25, 0, 0.25, 0, 1e-05, -0.25, 0, 0.25, 0 ),
"times": PoolRealArray( 0, 0.3, 0.6, 0.8 )
}
tracks/2/type = "bezier"
tracks/2/path = NodePath("CollisionShape2D:scale:y")
tracks/2/interp = 1
tracks/2/loop_wrap = true
tracks/2/imported = false
tracks/2/enabled = true
tracks/2/keys = {
"points": PoolRealArray( 0.1, -0.25, 0, 0.25, 0, 1, -0.25, 0, 0.25, 0, 0.7, -0.25, 0, 0.25, 0, 1e-05, -0.25, 0, 0.25, 0 ),
"times": PoolRealArray( 0, 0.3, 0.6, 0.8 )
}
tracks/3/type = "method"
tracks/3/path = NodePath(".")
tracks/3/interp = 1
tracks/3/loop_wrap = true
tracks/3/imported = false
tracks/3/enabled = true
tracks/3/keys = {
"times": PoolRealArray( 0.9 ),
"transitions": PoolRealArray( 1 ),
"values": [ {
"args": [  ],
"method": "death"
} ]
}
tracks/4/type = "bezier"
tracks/4/path = NodePath("CollisionShape2D:position:x")
tracks/4/interp = 1
tracks/4/loop_wrap = true
tracks/4/imported = false
tracks/4/enabled = true
tracks/4/keys = {
"points": PoolRealArray( -0.279991, -0.25, 0, 0.25, 0 ),
"times": PoolRealArray( 0 )
}
tracks/5/type = "bezier"
tracks/5/path = NodePath("CollisionShape2D:position:y")
tracks/5/interp = 1
tracks/5/loop_wrap = true
tracks/5/imported = false
tracks/5/enabled = true
tracks/5/keys = {
"points": PoolRealArray( 2.89631, -0.25, 0, 0.25, 0 ),
"times": PoolRealArray( 0 )
}
tracks/6/type = "audio"
tracks/6/path = NodePath("snd")
tracks/6/interp = 1
tracks/6/loop_wrap = true
tracks/6/imported = false
tracks/6/enabled = true
tracks/6/keys = {
"clips": [ {
"end_offset": 0.0,
"start_offset": 0.0,
"stream": ExtResource( 3 )
} ],
"times": PoolRealArray( 0 )
}

[node name="explosion" type="Area2D" groups=[
"explosion",
]]
script = ExtResource( 2 )

[node name="sprite" type="Sprite" parent="."]
texture = ExtResource( 1 )
hframes = 12
frame = 2

[node name="CollisionShape2D" type="CollisionShape2D" parent="." groups=[
"damage",
]]
position = Vector2( -0.279991, 2.89631 )
scale = Vector2( 0.1, 0.1 )
shape = SubResource( 1 )

[node name="AnimationPlayer" type="AnimationPlayer" parent="."]
autoplay = "death"
anims/death = SubResource( 2 )

[node name="snd" type="AudioStreamPlayer2D" parent="."]
stream = ExtResource( 3 )
